{
	"log": {
		"version": "1.2",
		"creator": {
			"name": "Insomnia REST Client",
			"version": "insomnia.desktop.app:v7.0.0"
		},
		"entries": [
			{
				"startedDateTime": "2020-02-03T19:05:19.378Z",
				"time": 0,
				"request": {
					"method": "POST",
					"url": "http://localhost:3000/posts/5e385541704a333288523249/comments",
					"httpVersion": "HTTP/1.1",
					"cookies": [],
					"headers": [
						{
							"name": "Content-Type",
							"value": "application/json"
						}
					],
					"queryString": [],
					"postData": {
						"mimeType": "application/json",
						"text": "{\n\t\"name\": \"Nome de teste\",\n\t\"email\": \"ze@ze.com\",\n\t\"body\": \"corpo do comentario, post maneiro!\"\n}",
						"params": []
					},
					"headersSize": -1,
					"bodySize": -1,
					"settingEncodeUrl": true
				},
				"response": {
					"status": 0,
					"statusText": "",
					"httpVersion": "HTTP/1.1",
					"cookies": [],
					"headers": [],
					"content": {
						"size": 0,
						"mimeType": ""
					},
					"redirectURL": "",
					"headersSize": -1,
					"bodySize": -1
				},
				"cache": {},
				"timings": {
					"blocked": -1,
					"dns": -1,
					"connect": -1,
					"send": 0,
					"wait": 0,
					"receive": 0,
					"ssl": -1
				},
				"comment": "new comment"
			},
			{
				"startedDateTime": "2020-02-03T19:05:19.378Z",
				"time": 0,
				"request": {
					"method": "GET",
					"url": "http://localhost:3000/posts/5e385541704a333288523249/comments",
					"httpVersion": "HTTP/1.1",
					"cookies": [],
					"headers": [],
					"queryString": [],
					"postData": {
						"mimeType": "",
						"text": "",
						"params": []
					},
					"headersSize": -1,
					"bodySize": -1,
					"settingEncodeUrl": true
				},
				"response": {
					"status": 0,
					"statusText": "",
					"httpVersion": "HTTP/1.1",
					"cookies": [],
					"headers": [],
					"content": {
						"size": 0,
						"mimeType": ""
					},
					"redirectURL": "",
					"headersSize": -1,
					"bodySize": -1
				},
				"cache": {},
				"timings": {
					"blocked": -1,
					"dns": -1,
					"connect": -1,
					"send": 0,
					"wait": 0,
					"receive": 0,
					"ssl": -1
				},
				"comment": "get comments"
			},
			{
				"startedDateTime": "2020-02-03T19:05:19.378Z",
				"time": 0,
				"request": {
					"method": "GET",
					"url": "http://localhost:3000/posts/5e385541704a333288523249",
					"httpVersion": "HTTP/1.1",
					"cookies": [],
					"headers": [],
					"queryString": [],
					"postData": {
						"mimeType": "",
						"text": "",
						"params": []
					},
					"headersSize": -1,
					"bodySize": -1,
					"settingEncodeUrl": true
				},
				"response": {
					"status": 0,
					"statusText": "",
					"httpVersion": "HTTP/1.1",
					"cookies": [],
					"headers": [],
					"content": {
						"size": 0,
						"mimeType": ""
					},
					"redirectURL": "",
					"headersSize": -1,
					"bodySize": -1
				},
				"cache": {},
				"timings": {
					"blocked": -1,
					"dns": -1,
					"connect": -1,
					"send": 0,
					"wait": 0,
					"receive": 0,
					"ssl": -1
				},
				"comment": "get one"
			},
			{
				"startedDateTime": "2020-02-03T19:05:19.378Z",
				"time": 0,
				"request": {
					"method": "GET",
					"url": "http://localhost:3000/posts",
					"httpVersion": "HTTP/1.1",
					"cookies": [],
					"headers": [],
					"queryString": [],
					"postData": {
						"mimeType": "",
						"text": "",
						"params": []
					},
					"headersSize": -1,
					"bodySize": -1,
					"settingEncodeUrl": true
				},
				"response": {
					"status": 0,
					"statusText": "",
					"httpVersion": "HTTP/1.1",
					"cookies": [],
					"headers": [],
					"content": {
						"size": 0,
						"mimeType": ""
					},
					"redirectURL": "",
					"headersSize": -1,
					"bodySize": -1
				},
				"cache": {},
				"timings": {
					"blocked": -1,
					"dns": -1,
					"connect": -1,
					"send": 0,
					"wait": 0,
					"receive": 0,
					"ssl": -1
				},
				"comment": "buscar posts"
			},
			{
				"startedDateTime": "2020-02-03T19:05:19.378Z",
				"time": 0,
				"request": {
					"method": "POST",
					"url": "http://localhost:3000/posts",
					"httpVersion": "HTTP/1.1",
					"cookies": [],
					"headers": [
						{
							"name": "Content-Type",
							"value": "application/json"
						}
					],
					"queryString": [],
					"postData": {
						"mimeType": "application/json",
						"text": "{\n\t\"title\": \"fdsa\",\n\t\"body\": \"corpo um maise\"\n}",
						"params": []
					},
					"headersSize": -1,
					"bodySize": -1,
					"settingEncodeUrl": true
				},
				"response": {
					"status": 0,
					"statusText": "",
					"httpVersion": "HTTP/1.1",
					"cookies": [],
					"headers": [],
					"content": {
						"size": 0,
						"mimeType": ""
					},
					"redirectURL": "",
					"headersSize": -1,
					"bodySize": -1
				},
				"cache": {},
				"timings": {
					"blocked": -1,
					"dns": -1,
					"connect": -1,
					"send": 0,
					"wait": 0,
					"receive": 0,
					"ssl": -1
				},
				"comment": "criar post"
			},
			{
				"startedDateTime": "2020-02-03T19:05:19.378Z",
				"time": 0,
				"request": {
					"method": "PUT",
					"url": "http://localhost:3000/posts/5e380e578a3875121d65dee9",
					"httpVersion": "HTTP/1.1",
					"cookies": [],
					"headers": [
						{
							"name": "Content-Type",
							"value": "application/json"
						}
					],
					"queryString": [],
					"postData": {
						"mimeType": "application/json",
						"text": "{\n\t\"title\": \"titulo 1 teste atualizado\",\n\t\"body\": \"corpo um atualizado nicez\"\t\n}",
						"params": []
					},
					"headersSize": -1,
					"bodySize": -1,
					"settingEncodeUrl": true
				},
				"response": {
					"status": 0,
					"statusText": "",
					"httpVersion": "HTTP/1.1",
					"cookies": [],
					"headers": [],
					"content": {
						"size": 0,
						"mimeType": ""
					},
					"redirectURL": "",
					"headersSize": -1,
					"bodySize": -1
				},
				"cache": {},
				"timings": {
					"blocked": -1,
					"dns": -1,
					"connect": -1,
					"send": 0,
					"wait": 0,
					"receive": 0,
					"ssl": -1
				},
				"comment": "atualizar post"
			},
			{
				"startedDateTime": "2020-02-03T19:05:19.378Z",
				"time": 0,
				"request": {
					"method": "DELETE",
					"url": "http://localhost:3000/posts/5e384077bbcc102c3ddb37c5",
					"httpVersion": "HTTP/1.1",
					"cookies": [],
					"headers": [],
					"queryString": [],
					"postData": {
						"mimeType": "",
						"text": "",
						"params": []
					},
					"headersSize": -1,
					"bodySize": -1,
					"settingEncodeUrl": true
				},
				"response": {
					"status": 0,
					"statusText": "",
					"httpVersion": "HTTP/1.1",
					"cookies": [],
					"headers": [],
					"content": {
						"size": 0,
						"mimeType": ""
					},
					"redirectURL": "",
					"headersSize": -1,
					"bodySize": -1
				},
				"cache": {},
				"timings": {
					"blocked": -1,
					"dns": -1,
					"connect": -1,
					"send": 0,
					"wait": 0,
					"receive": 0,
					"ssl": -1
				},
				"comment": "deletar"
			}
		]
	}
}